[gd_scene load_steps=4 format=2]

[ext_resource path="res://environment/door/door.gd" type="Script" id=1]
[ext_resource path="res://sprites/icon.png" type="Texture" id=2]






[sub_resource type="RectangleShape2D" id=3]

custom_solver_bias = 0.0
extents = Vector2( 30, 30 )

[node name="Area2D" type="Area2D"]

position = Vector2( 80, 140 )
input_pickable = true
gravity_vec = Vector2( 0, 1 )
gravity = 98.0
linear_damp = 0.1
angular_damp = 1.0
audio_bus_override = false
audio_bus_name = "Master"
script = ExtResource( 1 )

[node name="icon" type="Sprite" parent="." index="0"]

texture = ExtResource( 2 )
__meta__ = {
"_edit_lock_": true
}

[node name="CollisionShape2D" type="CollisionShape2D" parent="." index="1"]

shape = SubResource( 3 )
__meta__ = {
"_edit_lock_": true
}


